…
``` r
#How many aisles are there, and which aisles are the most items ordered from?
unique(instacart_data['aisle'])
```

    ## # A tibble: 134 x 1
    ##    aisle                        
    ##    <chr>                        
    ##  1 yogurt                       
    ##  2 other creams cheeses         
    ##  3 fresh vegetables             
    ##  4 canned meat seafood          
    ##  5 fresh fruits                 
    ##  6 packaged cheese              
    ##  7 specialty cheeses            
    ##  8 water seltzer sparkling water
    ##  9 cream                        
    ## 10 packaged vegetables fruits   
    ## # … with 124 more rows
…
